{
  "version": "tree-0.1",
  "tree": {
    "id": "App",
    "path": "",
    "children": {
      "Tree": {
        "id": "Tree",
        "path": "Tree",
        "constructInfo": {
          "fqn": "@aws-cdk/core.Construct",
          "version": "1.107.0"
        }
      },
      "JupyterECS": {
        "id": "JupyterECS",
        "path": "JupyterECS",
        "children": {
          "JupyterECSTaskRole": {
            "id": "JupyterECSTaskRole",
            "path": "JupyterECS/JupyterECSTaskRole",
            "children": {
              "Resource": {
                "id": "Resource",
                "path": "JupyterECS/JupyterECSTaskRole/Resource",
                "attributes": {
                  "aws:cdk:cloudformation:type": "AWS::IAM::Role",
                  "aws:cdk:cloudformation:props": {
                    "assumeRolePolicyDocument": {
                      "Statement": [
                        {
                          "Action": "sts:AssumeRole",
                          "Effect": "Allow",
                          "Principal": {
                            "Service": "ecs-tasks.amazonaws.com"
                          }
                        }
                      ],
                      "Version": "2012-10-17"
                    }
                  }
                },
                "constructInfo": {
                  "fqn": "@aws-cdk/aws-iam.CfnRole",
                  "version": "1.107.0"
                }
              },
              "DefaultPolicy": {
                "id": "DefaultPolicy",
                "path": "JupyterECS/JupyterECSTaskRole/DefaultPolicy",
                "children": {
                  "Resource": {
                    "id": "Resource",
                    "path": "JupyterECS/JupyterECSTaskRole/DefaultPolicy/Resource",
                    "attributes": {
                      "aws:cdk:cloudformation:type": "AWS::IAM::Policy",
                      "aws:cdk:cloudformation:props": {
                        "policyDocument": {
                          "Statement": [
                            {
                              "Action": [
                                "cloudwatch:PutMetricData",
                                "cloudwatch:ListMetrics"
                              ],
                              "Effect": "Allow",
                              "Resource": "*"
                            },
                            {
                              "Action": [
                                "logs:CreateLogStream",
                                "logs:DescribeLogGroups",
                                "logs:DescribeLogStreams",
                                "logs:CreateLogGroup",
                                "logs:PutLogEvents",
                                "logs:PutRetentionPolicy"
                              ],
                              "Effect": "Allow",
                              "Resource": "*"
                            },
                            {
                              "Action": "ec2:DescribeRegions",
                              "Effect": "Allow",
                              "Resource": "*"
                            }
                          ],
                          "Version": "2012-10-17"
                        },
                        "policyName": "JupyterECSTaskRoleDefaultPolicyB1DFBCFF",
                        "roles": [
                          {
                            "Ref": "JupyterECSTaskRole86572C37"
                          }
                        ]
                      }
                    },
                    "constructInfo": {
                      "fqn": "@aws-cdk/aws-iam.CfnPolicy",
                      "version": "1.107.0"
                    }
                  }
                },
                "constructInfo": {
                  "fqn": "@aws-cdk/aws-iam.Policy",
                  "version": "1.107.0"
                }
              }
            },
            "constructInfo": {
              "fqn": "@aws-cdk/aws-iam.Role",
              "version": "1.107.0"
            }
          },
          "JupyterECSTaskExecutionRole": {
            "id": "JupyterECSTaskExecutionRole",
            "path": "JupyterECS/JupyterECSTaskExecutionRole",
            "children": {
              "Resource": {
                "id": "Resource",
                "path": "JupyterECS/JupyterECSTaskExecutionRole/Resource",
                "attributes": {
                  "aws:cdk:cloudformation:type": "AWS::IAM::Role",
                  "aws:cdk:cloudformation:props": {
                    "assumeRolePolicyDocument": {
                      "Statement": [
                        {
                          "Action": "sts:AssumeRole",
                          "Effect": "Allow",
                          "Principal": {
                            "Service": "ecs-tasks.amazonaws.com"
                          }
                        }
                      ],
                      "Version": "2012-10-17"
                    },
                    "managedPolicyArns": [
                      "arn:aws:iam::aws:policy/service-role/AmazonECSTaskExecutionRolePolicy"
                    ]
                  }
                },
                "constructInfo": {
                  "fqn": "@aws-cdk/aws-iam.CfnRole",
                  "version": "1.107.0"
                }
              },
              "DefaultPolicy": {
                "id": "DefaultPolicy",
                "path": "JupyterECS/JupyterECSTaskExecutionRole/DefaultPolicy",
                "children": {
                  "Resource": {
                    "id": "Resource",
                    "path": "JupyterECS/JupyterECSTaskExecutionRole/DefaultPolicy/Resource",
                    "attributes": {
                      "aws:cdk:cloudformation:type": "AWS::IAM::Policy",
                      "aws:cdk:cloudformation:props": {
                        "policyDocument": {
                          "Statement": [
                            {
                              "Action": [
                                "logs:CreateLogStream",
                                "logs:PutLogEvents"
                              ],
                              "Effect": "Allow",
                              "Resource": {
                                "Fn::GetAtt": [
                                  "JupyterECSTaskDefinitionJupyterECSContainerLogGroup22FF17CD",
                                  "Arn"
                                ]
                              }
                            }
                          ],
                          "Version": "2012-10-17"
                        },
                        "policyName": "JupyterECSTaskExecutionRoleDefaultPolicy968D850E",
                        "roles": [
                          {
                            "Ref": "JupyterECSTaskExecutionRole57A54572"
                          }
                        ]
                      }
                    },
                    "constructInfo": {
                      "fqn": "@aws-cdk/aws-iam.CfnPolicy",
                      "version": "1.107.0"
                    }
                  }
                },
                "constructInfo": {
                  "fqn": "@aws-cdk/aws-iam.Policy",
                  "version": "1.107.0"
                }
              }
            },
            "constructInfo": {
              "fqn": "@aws-cdk/aws-iam.Role",
              "version": "1.107.0"
            }
          },
          "JupyterECSServiceRole": {
            "id": "JupyterECSServiceRole",
            "path": "JupyterECS/JupyterECSServiceRole",
            "constructInfo": {
              "fqn": "@aws-cdk/core.Resource",
              "version": "1.107.0"
            }
          },
          "JupyterECSVpc": {
            "id": "JupyterECSVpc",
            "path": "JupyterECS/JupyterECSVpc",
            "children": {
              "Resource": {
                "id": "Resource",
                "path": "JupyterECS/JupyterECSVpc/Resource",
                "attributes": {
                  "aws:cdk:cloudformation:type": "AWS::EC2::VPC",
                  "aws:cdk:cloudformation:props": {
                    "cidrBlock": "10.0.0.0/16",
                    "enableDnsHostnames": true,
                    "enableDnsSupport": true,
                    "instanceTenancy": "default",
                    "tags": [
                      {
                        "key": "Name",
                        "value": "JupyterECS/JupyterECSVpc"
                      }
                    ]
                  }
                },
                "constructInfo": {
                  "fqn": "@aws-cdk/aws-ec2.CfnVPC",
                  "version": "1.107.0"
                }
              },
              "PublicSubnet1": {
                "id": "PublicSubnet1",
                "path": "JupyterECS/JupyterECSVpc/PublicSubnet1",
                "children": {
                  "Subnet": {
                    "id": "Subnet",
                    "path": "JupyterECS/JupyterECSVpc/PublicSubnet1/Subnet",
                    "attributes": {
                      "aws:cdk:cloudformation:type": "AWS::EC2::Subnet",
                      "aws:cdk:cloudformation:props": {
                        "cidrBlock": "10.0.0.0/18",
                        "vpcId": {
                          "Ref": "JupyterECSVpcB150AB86"
                        },
                        "availabilityZone": {
                          "Fn::Select": [
                            0,
                            {
                              "Fn::GetAZs": ""
                            }
                          ]
                        },
                        "mapPublicIpOnLaunch": true,
                        "tags": [
                          {
                            "key": "aws-cdk:subnet-name",
                            "value": "Public"
                          },
                          {
                            "key": "aws-cdk:subnet-type",
                            "value": "Public"
                          },
                          {
                            "key": "Name",
                            "value": "JupyterECS/JupyterECSVpc/PublicSubnet1"
                          }
                        ]
                      }
                    },
                    "constructInfo": {
                      "fqn": "@aws-cdk/aws-ec2.CfnSubnet",
                      "version": "1.107.0"
                    }
                  },
                  "Acl": {
                    "id": "Acl",
                    "path": "JupyterECS/JupyterECSVpc/PublicSubnet1/Acl",
                    "constructInfo": {
                      "fqn": "@aws-cdk/core.Resource",
                      "version": "1.107.0"
                    }
                  },
                  "RouteTable": {
                    "id": "RouteTable",
                    "path": "JupyterECS/JupyterECSVpc/PublicSubnet1/RouteTable",
                    "attributes": {
                      "aws:cdk:cloudformation:type": "AWS::EC2::RouteTable",
                      "aws:cdk:cloudformation:props": {
                        "vpcId": {
                          "Ref": "JupyterECSVpcB150AB86"
                        },
                        "tags": [
                          {
                            "key": "Name",
                            "value": "JupyterECS/JupyterECSVpc/PublicSubnet1"
                          }
                        ]
                      }
                    },
                    "constructInfo": {
                      "fqn": "@aws-cdk/aws-ec2.CfnRouteTable",
                      "version": "1.107.0"
                    }
                  },
                  "RouteTableAssociation": {
                    "id": "RouteTableAssociation",
                    "path": "JupyterECS/JupyterECSVpc/PublicSubnet1/RouteTableAssociation",
                    "attributes": {
                      "aws:cdk:cloudformation:type": "AWS::EC2::SubnetRouteTableAssociation",
                      "aws:cdk:cloudformation:props": {
                        "routeTableId": {
                          "Ref": "JupyterECSVpcPublicSubnet1RouteTable6333FB6C"
                        },
                        "subnetId": {
                          "Ref": "JupyterECSVpcPublicSubnet1SubnetB2C167D7"
                        }
                      }
                    },
                    "constructInfo": {
                      "fqn": "@aws-cdk/aws-ec2.CfnSubnetRouteTableAssociation",
                      "version": "1.107.0"
                    }
                  },
                  "DefaultRoute": {
                    "id": "DefaultRoute",
                    "path": "JupyterECS/JupyterECSVpc/PublicSubnet1/DefaultRoute",
                    "attributes": {
                      "aws:cdk:cloudformation:type": "AWS::EC2::Route",
                      "aws:cdk:cloudformation:props": {
                        "routeTableId": {
                          "Ref": "JupyterECSVpcPublicSubnet1RouteTable6333FB6C"
                        },
                        "destinationCidrBlock": "0.0.0.0/0",
                        "gatewayId": {
                          "Ref": "JupyterECSVpcIGW99B7925E"
                        }
                      }
                    },
                    "constructInfo": {
                      "fqn": "@aws-cdk/aws-ec2.CfnRoute",
                      "version": "1.107.0"
                    }
                  },
                  "EIP": {
                    "id": "EIP",
                    "path": "JupyterECS/JupyterECSVpc/PublicSubnet1/EIP",
                    "attributes": {
                      "aws:cdk:cloudformation:type": "AWS::EC2::EIP",
                      "aws:cdk:cloudformation:props": {
                        "domain": "vpc",
                        "tags": [
                          {
                            "key": "Name",
                            "value": "JupyterECS/JupyterECSVpc/PublicSubnet1"
                          }
                        ]
                      }
                    },
                    "constructInfo": {
                      "fqn": "@aws-cdk/aws-ec2.CfnEIP",
                      "version": "1.107.0"
                    }
                  },
                  "NATGateway": {
                    "id": "NATGateway",
                    "path": "JupyterECS/JupyterECSVpc/PublicSubnet1/NATGateway",
                    "attributes": {
                      "aws:cdk:cloudformation:type": "AWS::EC2::NatGateway",
                      "aws:cdk:cloudformation:props": {
                        "allocationId": {
                          "Fn::GetAtt": [
                            "JupyterECSVpcPublicSubnet1EIPD924D388",
                            "AllocationId"
                          ]
                        },
                        "subnetId": {
                          "Ref": "JupyterECSVpcPublicSubnet1SubnetB2C167D7"
                        },
                        "tags": [
                          {
                            "key": "Name",
                            "value": "JupyterECS/JupyterECSVpc/PublicSubnet1"
                          }
                        ]
                      }
                    },
                    "constructInfo": {
                      "fqn": "@aws-cdk/aws-ec2.CfnNatGateway",
                      "version": "1.107.0"
                    }
                  }
                },
                "constructInfo": {
                  "fqn": "@aws-cdk/aws-ec2.PublicSubnet",
                  "version": "1.107.0"
                }
              },
              "PublicSubnet2": {
                "id": "PublicSubnet2",
                "path": "JupyterECS/JupyterECSVpc/PublicSubnet2",
                "children": {
                  "Subnet": {
                    "id": "Subnet",
                    "path": "JupyterECS/JupyterECSVpc/PublicSubnet2/Subnet",
                    "attributes": {
                      "aws:cdk:cloudformation:type": "AWS::EC2::Subnet",
                      "aws:cdk:cloudformation:props": {
                        "cidrBlock": "10.0.64.0/18",
                        "vpcId": {
                          "Ref": "JupyterECSVpcB150AB86"
                        },
                        "availabilityZone": {
                          "Fn::Select": [
                            1,
                            {
                              "Fn::GetAZs": ""
                            }
                          ]
                        },
                        "mapPublicIpOnLaunch": true,
                        "tags": [
                          {
                            "key": "aws-cdk:subnet-name",
                            "value": "Public"
                          },
                          {
                            "key": "aws-cdk:subnet-type",
                            "value": "Public"
                          },
                          {
                            "key": "Name",
                            "value": "JupyterECS/JupyterECSVpc/PublicSubnet2"
                          }
                        ]
                      }
                    },
                    "constructInfo": {
                      "fqn": "@aws-cdk/aws-ec2.CfnSubnet",
                      "version": "1.107.0"
                    }
                  },
                  "Acl": {
                    "id": "Acl",
                    "path": "JupyterECS/JupyterECSVpc/PublicSubnet2/Acl",
                    "constructInfo": {
                      "fqn": "@aws-cdk/core.Resource",
                      "version": "1.107.0"
                    }
                  },
                  "RouteTable": {
                    "id": "RouteTable",
                    "path": "JupyterECS/JupyterECSVpc/PublicSubnet2/RouteTable",
                    "attributes": {
                      "aws:cdk:cloudformation:type": "AWS::EC2::RouteTable",
                      "aws:cdk:cloudformation:props": {
                        "vpcId": {
                          "Ref": "JupyterECSVpcB150AB86"
                        },
                        "tags": [
                          {
                            "key": "Name",
                            "value": "JupyterECS/JupyterECSVpc/PublicSubnet2"
                          }
                        ]
                      }
                    },
                    "constructInfo": {
                      "fqn": "@aws-cdk/aws-ec2.CfnRouteTable",
                      "version": "1.107.0"
                    }
                  },
                  "RouteTableAssociation": {
                    "id": "RouteTableAssociation",
                    "path": "JupyterECS/JupyterECSVpc/PublicSubnet2/RouteTableAssociation",
                    "attributes": {
                      "aws:cdk:cloudformation:type": "AWS::EC2::SubnetRouteTableAssociation",
                      "aws:cdk:cloudformation:props": {
                        "routeTableId": {
                          "Ref": "JupyterECSVpcPublicSubnet2RouteTable1A546538"
                        },
                        "subnetId": {
                          "Ref": "JupyterECSVpcPublicSubnet2Subnet71917709"
                        }
                      }
                    },
                    "constructInfo": {
                      "fqn": "@aws-cdk/aws-ec2.CfnSubnetRouteTableAssociation",
                      "version": "1.107.0"
                    }
                  },
                  "DefaultRoute": {
                    "id": "DefaultRoute",
                    "path": "JupyterECS/JupyterECSVpc/PublicSubnet2/DefaultRoute",
                    "attributes": {
                      "aws:cdk:cloudformation:type": "AWS::EC2::Route",
                      "aws:cdk:cloudformation:props": {
                        "routeTableId": {
                          "Ref": "JupyterECSVpcPublicSubnet2RouteTable1A546538"
                        },
                        "destinationCidrBlock": "0.0.0.0/0",
                        "gatewayId": {
                          "Ref": "JupyterECSVpcIGW99B7925E"
                        }
                      }
                    },
                    "constructInfo": {
                      "fqn": "@aws-cdk/aws-ec2.CfnRoute",
                      "version": "1.107.0"
                    }
                  },
                  "EIP": {
                    "id": "EIP",
                    "path": "JupyterECS/JupyterECSVpc/PublicSubnet2/EIP",
                    "attributes": {
                      "aws:cdk:cloudformation:type": "AWS::EC2::EIP",
                      "aws:cdk:cloudformation:props": {
                        "domain": "vpc",
                        "tags": [
                          {
                            "key": "Name",
                            "value": "JupyterECS/JupyterECSVpc/PublicSubnet2"
                          }
                        ]
                      }
                    },
                    "constructInfo": {
                      "fqn": "@aws-cdk/aws-ec2.CfnEIP",
                      "version": "1.107.0"
                    }
                  },
                  "NATGateway": {
                    "id": "NATGateway",
                    "path": "JupyterECS/JupyterECSVpc/PublicSubnet2/NATGateway",
                    "attributes": {
                      "aws:cdk:cloudformation:type": "AWS::EC2::NatGateway",
                      "aws:cdk:cloudformation:props": {
                        "allocationId": {
                          "Fn::GetAtt": [
                            "JupyterECSVpcPublicSubnet2EIPC417ADED",
                            "AllocationId"
                          ]
                        },
                        "subnetId": {
                          "Ref": "JupyterECSVpcPublicSubnet2Subnet71917709"
                        },
                        "tags": [
                          {
                            "key": "Name",
                            "value": "JupyterECS/JupyterECSVpc/PublicSubnet2"
                          }
                        ]
                      }
                    },
                    "constructInfo": {
                      "fqn": "@aws-cdk/aws-ec2.CfnNatGateway",
                      "version": "1.107.0"
                    }
                  }
                },
                "constructInfo": {
                  "fqn": "@aws-cdk/aws-ec2.PublicSubnet",
                  "version": "1.107.0"
                }
              },
              "PrivateSubnet1": {
                "id": "PrivateSubnet1",
                "path": "JupyterECS/JupyterECSVpc/PrivateSubnet1",
                "children": {
                  "Subnet": {
                    "id": "Subnet",
                    "path": "JupyterECS/JupyterECSVpc/PrivateSubnet1/Subnet",
                    "attributes": {
                      "aws:cdk:cloudformation:type": "AWS::EC2::Subnet",
                      "aws:cdk:cloudformation:props": {
                        "cidrBlock": "10.0.128.0/18",
                        "vpcId": {
                          "Ref": "JupyterECSVpcB150AB86"
                        },
                        "availabilityZone": {
                          "Fn::Select": [
                            0,
                            {
                              "Fn::GetAZs": ""
                            }
                          ]
                        },
                        "mapPublicIpOnLaunch": false,
                        "tags": [
                          {
                            "key": "aws-cdk:subnet-name",
                            "value": "Private"
                          },
                          {
                            "key": "aws-cdk:subnet-type",
                            "value": "Private"
                          },
                          {
                            "key": "Name",
                            "value": "JupyterECS/JupyterECSVpc/PrivateSubnet1"
                          }
                        ]
                      }
                    },
                    "constructInfo": {
                      "fqn": "@aws-cdk/aws-ec2.CfnSubnet",
                      "version": "1.107.0"
                    }
                  },
                  "Acl": {
                    "id": "Acl",
                    "path": "JupyterECS/JupyterECSVpc/PrivateSubnet1/Acl",
                    "constructInfo": {
                      "fqn": "@aws-cdk/core.Resource",
                      "version": "1.107.0"
                    }
                  },
                  "RouteTable": {
                    "id": "RouteTable",
                    "path": "JupyterECS/JupyterECSVpc/PrivateSubnet1/RouteTable",
                    "attributes": {
                      "aws:cdk:cloudformation:type": "AWS::EC2::RouteTable",
                      "aws:cdk:cloudformation:props": {
                        "vpcId": {
                          "Ref": "JupyterECSVpcB150AB86"
                        },
                        "tags": [
                          {
                            "key": "Name",
                            "value": "JupyterECS/JupyterECSVpc/PrivateSubnet1"
                          }
                        ]
                      }
                    },
                    "constructInfo": {
                      "fqn": "@aws-cdk/aws-ec2.CfnRouteTable",
                      "version": "1.107.0"
                    }
                  },
                  "RouteTableAssociation": {
                    "id": "RouteTableAssociation",
                    "path": "JupyterECS/JupyterECSVpc/PrivateSubnet1/RouteTableAssociation",
                    "attributes": {
                      "aws:cdk:cloudformation:type": "AWS::EC2::SubnetRouteTableAssociation",
                      "aws:cdk:cloudformation:props": {
                        "routeTableId": {
                          "Ref": "JupyterECSVpcPrivateSubnet1RouteTable5E3D473A"
                        },
                        "subnetId": {
                          "Ref": "JupyterECSVpcPrivateSubnet1SubnetC57688CE"
                        }
                      }
                    },
                    "constructInfo": {
                      "fqn": "@aws-cdk/aws-ec2.CfnSubnetRouteTableAssociation",
                      "version": "1.107.0"
                    }
                  },
                  "DefaultRoute": {
                    "id": "DefaultRoute",
                    "path": "JupyterECS/JupyterECSVpc/PrivateSubnet1/DefaultRoute",
                    "attributes": {
                      "aws:cdk:cloudformation:type": "AWS::EC2::Route",
                      "aws:cdk:cloudformation:props": {
                        "routeTableId": {
                          "Ref": "JupyterECSVpcPrivateSubnet1RouteTable5E3D473A"
                        },
                        "destinationCidrBlock": "0.0.0.0/0",
                        "natGatewayId": {
                          "Ref": "JupyterECSVpcPublicSubnet1NATGateway645A18E9"
                        }
                      }
                    },
                    "constructInfo": {
                      "fqn": "@aws-cdk/aws-ec2.CfnRoute",
                      "version": "1.107.0"
                    }
                  }
                },
                "constructInfo": {
                  "fqn": "@aws-cdk/aws-ec2.PrivateSubnet",
                  "version": "1.107.0"
                }
              },
              "PrivateSubnet2": {
                "id": "PrivateSubnet2",
                "path": "JupyterECS/JupyterECSVpc/PrivateSubnet2",
                "children": {
                  "Subnet": {
                    "id": "Subnet",
                    "path": "JupyterECS/JupyterECSVpc/PrivateSubnet2/Subnet",
                    "attributes": {
                      "aws:cdk:cloudformation:type": "AWS::EC2::Subnet",
                      "aws:cdk:cloudformation:props": {
                        "cidrBlock": "10.0.192.0/18",
                        "vpcId": {
                          "Ref": "JupyterECSVpcB150AB86"
                        },
                        "availabilityZone": {
                          "Fn::Select": [
                            1,
                            {
                              "Fn::GetAZs": ""
                            }
                          ]
                        },
                        "mapPublicIpOnLaunch": false,
                        "tags": [
                          {
                            "key": "aws-cdk:subnet-name",
                            "value": "Private"
                          },
                          {
                            "key": "aws-cdk:subnet-type",
                            "value": "Private"
                          },
                          {
                            "key": "Name",
                            "value": "JupyterECS/JupyterECSVpc/PrivateSubnet2"
                          }
                        ]
                      }
                    },
                    "constructInfo": {
                      "fqn": "@aws-cdk/aws-ec2.CfnSubnet",
                      "version": "1.107.0"
                    }
                  },
                  "Acl": {
                    "id": "Acl",
                    "path": "JupyterECS/JupyterECSVpc/PrivateSubnet2/Acl",
                    "constructInfo": {
                      "fqn": "@aws-cdk/core.Resource",
                      "version": "1.107.0"
                    }
                  },
                  "RouteTable": {
                    "id": "RouteTable",
                    "path": "JupyterECS/JupyterECSVpc/PrivateSubnet2/RouteTable",
                    "attributes": {
                      "aws:cdk:cloudformation:type": "AWS::EC2::RouteTable",
                      "aws:cdk:cloudformation:props": {
                        "vpcId": {
                          "Ref": "JupyterECSVpcB150AB86"
                        },
                        "tags": [
                          {
                            "key": "Name",
                            "value": "JupyterECS/JupyterECSVpc/PrivateSubnet2"
                          }
                        ]
                      }
                    },
                    "constructInfo": {
                      "fqn": "@aws-cdk/aws-ec2.CfnRouteTable",
                      "version": "1.107.0"
                    }
                  },
                  "RouteTableAssociation": {
                    "id": "RouteTableAssociation",
                    "path": "JupyterECS/JupyterECSVpc/PrivateSubnet2/RouteTableAssociation",
                    "attributes": {
                      "aws:cdk:cloudformation:type": "AWS::EC2::SubnetRouteTableAssociation",
                      "aws:cdk:cloudformation:props": {
                        "routeTableId": {
                          "Ref": "JupyterECSVpcPrivateSubnet2RouteTable0C3356F0"
                        },
                        "subnetId": {
                          "Ref": "JupyterECSVpcPrivateSubnet2Subnet87900611"
                        }
                      }
                    },
                    "constructInfo": {
                      "fqn": "@aws-cdk/aws-ec2.CfnSubnetRouteTableAssociation",
                      "version": "1.107.0"
                    }
                  },
                  "DefaultRoute": {
                    "id": "DefaultRoute",
                    "path": "JupyterECS/JupyterECSVpc/PrivateSubnet2/DefaultRoute",
                    "attributes": {
                      "aws:cdk:cloudformation:type": "AWS::EC2::Route",
                      "aws:cdk:cloudformation:props": {
                        "routeTableId": {
                          "Ref": "JupyterECSVpcPrivateSubnet2RouteTable0C3356F0"
                        },
                        "destinationCidrBlock": "0.0.0.0/0",
                        "natGatewayId": {
                          "Ref": "JupyterECSVpcPublicSubnet2NATGateway59A2E909"
                        }
                      }
                    },
                    "constructInfo": {
                      "fqn": "@aws-cdk/aws-ec2.CfnRoute",
                      "version": "1.107.0"
                    }
                  }
                },
                "constructInfo": {
                  "fqn": "@aws-cdk/aws-ec2.PrivateSubnet",
                  "version": "1.107.0"
                }
              },
              "IGW": {
                "id": "IGW",
                "path": "JupyterECS/JupyterECSVpc/IGW",
                "attributes": {
                  "aws:cdk:cloudformation:type": "AWS::EC2::InternetGateway",
                  "aws:cdk:cloudformation:props": {
                    "tags": [
                      {
                        "key": "Name",
                        "value": "JupyterECS/JupyterECSVpc"
                      }
                    ]
                  }
                },
                "constructInfo": {
                  "fqn": "@aws-cdk/aws-ec2.CfnInternetGateway",
                  "version": "1.107.0"
                }
              },
              "VPCGW": {
                "id": "VPCGW",
                "path": "JupyterECS/JupyterECSVpc/VPCGW",
                "attributes": {
                  "aws:cdk:cloudformation:type": "AWS::EC2::VPCGatewayAttachment",
                  "aws:cdk:cloudformation:props": {
                    "vpcId": {
                      "Ref": "JupyterECSVpcB150AB86"
                    },
                    "internetGatewayId": {
                      "Ref": "JupyterECSVpcIGW99B7925E"
                    }
                  }
                },
                "constructInfo": {
                  "fqn": "@aws-cdk/aws-ec2.CfnVPCGatewayAttachment",
                  "version": "1.107.0"
                }
              }
            },
            "constructInfo": {
              "fqn": "@aws-cdk/aws-ec2.Vpc",
              "version": "1.107.0"
            }
          },
          "JupyterECSLBSG": {
            "id": "JupyterECSLBSG",
            "path": "JupyterECS/JupyterECSLBSG",
            "children": {
              "Resource": {
                "id": "Resource",
                "path": "JupyterECS/JupyterECSLBSG/Resource",
                "attributes": {
                  "aws:cdk:cloudformation:type": "AWS::EC2::SecurityGroup",
                  "aws:cdk:cloudformation:props": {
                    "groupDescription": "Jupyter ECS service load balancer security group",
                    "securityGroupEgress": [
                      {
                        "cidrIp": "0.0.0.0/0",
                        "description": "Allow all outbound traffic by default",
                        "ipProtocol": "-1"
                      }
                    ],
                    "securityGroupIngress": [
                      {
                        "cidrIp": "122.187.88.146/32",
                        "ipProtocol": "tcp",
                        "fromPort": 443,
                        "toPort": 443,
                        "description": "Allow HTTPS traffic"
                      }
                    ],
                    "vpcId": {
                      "Ref": "JupyterECSVpcB150AB86"
                    }
                  }
                },
                "constructInfo": {
                  "fqn": "@aws-cdk/aws-ec2.CfnSecurityGroup",
                  "version": "1.107.0"
                }
              }
            },
            "constructInfo": {
              "fqn": "@aws-cdk/aws-ec2.SecurityGroup",
              "version": "1.107.0"
            }
          },
          "JupyterECSServiceSG": {
            "id": "JupyterECSServiceSG",
            "path": "JupyterECS/JupyterECSServiceSG",
            "children": {
              "Resource": {
                "id": "Resource",
                "path": "JupyterECS/JupyterECSServiceSG/Resource",
                "attributes": {
                  "aws:cdk:cloudformation:type": "AWS::EC2::SecurityGroup",
                  "aws:cdk:cloudformation:props": {
                    "groupDescription": "Jupyter ECS service containers security group",
                    "securityGroupEgress": [
                      {
                        "cidrIp": "0.0.0.0/0",
                        "description": "Allow all outbound traffic by default",
                        "ipProtocol": "-1"
                      }
                    ],
                    "vpcId": {
                      "Ref": "JupyterECSVpcB150AB86"
                    }
                  }
                },
                "constructInfo": {
                  "fqn": "@aws-cdk/aws-ec2.CfnSecurityGroup",
                  "version": "1.107.0"
                }
              },
              "from JupyterECSJupyterECSServiceALBSecurityGroup153C4100:8000": {
                "id": "from JupyterECSJupyterECSServiceALBSecurityGroup153C4100:8000",
                "path": "JupyterECS/JupyterECSServiceSG/from JupyterECSJupyterECSServiceALBSecurityGroup153C4100:8000",
                "attributes": {
                  "aws:cdk:cloudformation:type": "AWS::EC2::SecurityGroupIngress",
                  "aws:cdk:cloudformation:props": {
                    "ipProtocol": "tcp",
                    "description": "Load balancer to target",
                    "fromPort": 8000,
                    "groupId": {
                      "Fn::GetAtt": [
                        "JupyterECSServiceSG01E1DF0F",
                        "GroupId"
                      ]
                    },
                    "sourceSecurityGroupId": {
                      "Fn::GetAtt": [
                        "JupyterECSServiceALBSecurityGroup069902C3",
                        "GroupId"
                      ]
                    },
                    "toPort": 8000
                  }
                },
                "constructInfo": {
                  "fqn": "@aws-cdk/aws-ec2.CfnSecurityGroupIngress",
                  "version": "1.107.0"
                }
              },
              "from JupyterECSJupyterECSImportedLBSG6961C131:8000": {
                "id": "from JupyterECSJupyterECSImportedLBSG6961C131:8000",
                "path": "JupyterECS/JupyterECSServiceSG/from JupyterECSJupyterECSImportedLBSG6961C131:8000",
                "attributes": {
                  "aws:cdk:cloudformation:type": "AWS::EC2::SecurityGroupIngress",
                  "aws:cdk:cloudformation:props": {
                    "ipProtocol": "tcp",
                    "description": "Load balancer to target",
                    "fromPort": 8000,
                    "groupId": {
                      "Fn::GetAtt": [
                        "JupyterECSServiceSG01E1DF0F",
                        "GroupId"
                      ]
                    },
                    "sourceSecurityGroupId": {
                      "Fn::GetAtt": [
                        "JupyterECSLBSG83CECDAE",
                        "GroupId"
                      ]
                    },
                    "toPort": 8000
                  }
                },
                "constructInfo": {
                  "fqn": "@aws-cdk/aws-ec2.CfnSecurityGroupIngress",
                  "version": "1.107.0"
                }
              }
            },
            "constructInfo": {
              "fqn": "@aws-cdk/aws-ec2.SecurityGroup",
              "version": "1.107.0"
            }
          },
          "JupyterECSEFSSG": {
            "id": "JupyterECSEFSSG",
            "path": "JupyterECS/JupyterECSEFSSG",
            "children": {
              "Resource": {
                "id": "Resource",
                "path": "JupyterECS/JupyterECSEFSSG/Resource",
                "attributes": {
                  "aws:cdk:cloudformation:type": "AWS::EC2::SecurityGroup",
                  "aws:cdk:cloudformation:props": {
                    "groupDescription": "Jupyter shared filesystem security group",
                    "securityGroupEgress": [
                      {
                        "cidrIp": "0.0.0.0/0",
                        "description": "Allow all outbound traffic by default",
                        "ipProtocol": "-1"
                      }
                    ],
                    "vpcId": {
                      "Ref": "JupyterECSVpcB150AB86"
                    }
                  }
                },
                "constructInfo": {
                  "fqn": "@aws-cdk/aws-ec2.CfnSecurityGroup",
                  "version": "1.107.0"
                }
              },
              "from JupyterECSJupyterECSServiceSGA468EDA7:2049": {
                "id": "from JupyterECSJupyterECSServiceSGA468EDA7:2049",
                "path": "JupyterECS/JupyterECSEFSSG/from JupyterECSJupyterECSServiceSGA468EDA7:2049",
                "attributes": {
                  "aws:cdk:cloudformation:type": "AWS::EC2::SecurityGroupIngress",
                  "aws:cdk:cloudformation:props": {
                    "ipProtocol": "tcp",
                    "description": "Allow NFS from ECS Service containers",
                    "fromPort": 2049,
                    "groupId": {
                      "Fn::GetAtt": [
                        "JupyterECSEFSSG5A5AD0F2",
                        "GroupId"
                      ]
                    },
                    "sourceSecurityGroupId": {
                      "Fn::GetAtt": [
                        "JupyterECSServiceSG01E1DF0F",
                        "GroupId"
                      ]
                    },
                    "toPort": 2049
                  }
                },
                "constructInfo": {
                  "fqn": "@aws-cdk/aws-ec2.CfnSecurityGroupIngress",
                  "version": "1.107.0"
                }
              }
            },
            "constructInfo": {
              "fqn": "@aws-cdk/aws-ec2.SecurityGroup",
              "version": "1.107.0"
            }
          },
          "JupyterECSEFSCMK": {
            "id": "JupyterECSEFSCMK",
            "path": "JupyterECS/JupyterECSEFSCMK",
            "children": {
              "Resource": {
                "id": "Resource",
                "path": "JupyterECS/JupyterECSEFSCMK/Resource",
                "attributes": {
                  "aws:cdk:cloudformation:type": "AWS::KMS::Key",
                  "aws:cdk:cloudformation:props": {
                    "keyPolicy": {
                      "Statement": [
                        {
                          "Action": "kms:*",
                          "Effect": "Allow",
                          "Principal": {
                            "AWS": {
                              "Fn::Join": [
                                "",
                                [
                                  "arn:",
                                  {
                                    "Ref": "AWS::Partition"
                                  },
                                  ":iam::",
                                  {
                                    "Ref": "AWS::AccountId"
                                  },
                                  ":root"
                                ]
                              ]
                            }
                          },
                          "Resource": "*"
                        }
                      ],
                      "Version": "2012-10-17"
                    },
                    "description": "CMK for EFS Encryption",
                    "enabled": true,
                    "enableKeyRotation": true
                  }
                },
                "constructInfo": {
                  "fqn": "@aws-cdk/aws-kms.CfnKey",
                  "version": "1.107.0"
                }
              },
              "Alias": {
                "id": "Alias",
                "path": "JupyterECS/JupyterECSEFSCMK/Alias",
                "children": {
                  "Resource": {
                    "id": "Resource",
                    "path": "JupyterECS/JupyterECSEFSCMK/Alias/Resource",
                    "attributes": {
                      "aws:cdk:cloudformation:type": "AWS::KMS::Alias",
                      "aws:cdk:cloudformation:props": {
                        "aliasName": "alias/jupyter-ecs-efs-cmk",
                        "targetKeyId": {
                          "Fn::GetAtt": [
                            "JupyterECSEFSCMKE0C0E98E",
                            "Arn"
                          ]
                        }
                      }
                    },
                    "constructInfo": {
                      "fqn": "@aws-cdk/aws-kms.CfnAlias",
                      "version": "1.107.0"
                    }
                  }
                },
                "constructInfo": {
                  "fqn": "@aws-cdk/aws-kms.Alias",
                  "version": "1.107.0"
                }
              }
            },
            "constructInfo": {
              "fqn": "@aws-cdk/aws-kms.Key",
              "version": "1.107.0"
            }
          },
          "JupyterECSEFS": {
            "id": "JupyterECSEFS",
            "path": "JupyterECS/JupyterECSEFS",
            "children": {
              "Resource": {
                "id": "Resource",
                "path": "JupyterECS/JupyterECSEFS/Resource",
                "attributes": {
                  "aws:cdk:cloudformation:type": "AWS::EFS::FileSystem",
                  "aws:cdk:cloudformation:props": {
                    "encrypted": true,
                    "fileSystemTags": [
                      {
                        "key": "Name",
                        "value": "JupyterECS/JupyterECSEFS"
                      }
                    ],
                    "kmsKeyId": {
                      "Fn::GetAtt": [
                        "JupyterECSEFSCMKE0C0E98E",
                        "Arn"
                      ]
                    }
                  }
                },
                "constructInfo": {
                  "fqn": "@aws-cdk/aws-efs.CfnFileSystem",
                  "version": "1.107.0"
                }
              },
              "EfsMountTarget1": {
                "id": "EfsMountTarget1",
                "path": "JupyterECS/JupyterECSEFS/EfsMountTarget1",
                "attributes": {
                  "aws:cdk:cloudformation:type": "AWS::EFS::MountTarget",
                  "aws:cdk:cloudformation:props": {
                    "fileSystemId": {
                      "Ref": "JupyterECSEFSB80C1E99"
                    },
                    "securityGroups": [
                      {
                        "Fn::GetAtt": [
                          "JupyterECSEFSSG5A5AD0F2",
                          "GroupId"
                        ]
                      }
                    ],
                    "subnetId": {
                      "Ref": "JupyterECSVpcPrivateSubnet1SubnetC57688CE"
                    }
                  }
                },
                "constructInfo": {
                  "fqn": "@aws-cdk/aws-efs.CfnMountTarget",
                  "version": "1.107.0"
                }
              },
              "EfsMountTarget2": {
                "id": "EfsMountTarget2",
                "path": "JupyterECS/JupyterECSEFS/EfsMountTarget2",
                "attributes": {
                  "aws:cdk:cloudformation:type": "AWS::EFS::MountTarget",
                  "aws:cdk:cloudformation:props": {
                    "fileSystemId": {
                      "Ref": "JupyterECSEFSB80C1E99"
                    },
                    "securityGroups": [
                      {
                        "Fn::GetAtt": [
                          "JupyterECSEFSSG5A5AD0F2",
                          "GroupId"
                        ]
                      }
                    ],
                    "subnetId": {
                      "Ref": "JupyterECSVpcPrivateSubnet2Subnet87900611"
                    }
                  }
                },
                "constructInfo": {
                  "fqn": "@aws-cdk/aws-efs.CfnMountTarget",
                  "version": "1.107.0"
                }
              }
            },
            "constructInfo": {
              "fqn": "@aws-cdk/aws-efs.FileSystem",
              "version": "1.107.0"
            }
          },
          "JupyterECSCluster": {
            "id": "JupyterECSCluster",
            "path": "JupyterECS/JupyterECSCluster",
            "children": {
              "Resource": {
                "id": "Resource",
                "path": "JupyterECS/JupyterECSCluster/Resource",
                "attributes": {
                  "aws:cdk:cloudformation:type": "AWS::ECS::Cluster",
                  "aws:cdk:cloudformation:props": {}
                },
                "constructInfo": {
                  "fqn": "@aws-cdk/aws-ecs.CfnCluster",
                  "version": "1.107.0"
                }
              }
            },
            "constructInfo": {
              "fqn": "@aws-cdk/aws-ecs.Cluster",
              "version": "1.107.0"
            }
          },
          "JupyterECSServiceALB": {
            "id": "JupyterECSServiceALB",
            "path": "JupyterECS/JupyterECSServiceALB",
            "children": {
              "Resource": {
                "id": "Resource",
                "path": "JupyterECS/JupyterECSServiceALB/Resource",
                "attributes": {
                  "aws:cdk:cloudformation:type": "AWS::ElasticLoadBalancingV2::LoadBalancer",
                  "aws:cdk:cloudformation:props": {
                    "loadBalancerAttributes": [
                      {
                        "key": "deletion_protection.enabled",
                        "value": "false"
                      }
                    ],
                    "scheme": "internet-facing",
                    "securityGroups": [
                      {
                        "Fn::GetAtt": [
                          "JupyterECSServiceALBSecurityGroup069902C3",
                          "GroupId"
                        ]
                      },
                      {
                        "Fn::GetAtt": [
                          "JupyterECSLBSG83CECDAE",
                          "GroupId"
                        ]
                      }
                    ],
                    "subnets": [
                      {
                        "Ref": "JupyterECSVpcPublicSubnet1SubnetB2C167D7"
                      },
                      {
                        "Ref": "JupyterECSVpcPublicSubnet2Subnet71917709"
                      }
                    ],
                    "type": "application"
                  }
                },
                "constructInfo": {
                  "fqn": "@aws-cdk/aws-elasticloadbalancingv2.CfnLoadBalancer",
                  "version": "1.107.0"
                }
              },
              "SecurityGroup": {
                "id": "SecurityGroup",
                "path": "JupyterECS/JupyterECSServiceALB/SecurityGroup",
                "children": {
                  "Resource": {
                    "id": "Resource",
                    "path": "JupyterECS/JupyterECSServiceALB/SecurityGroup/Resource",
                    "attributes": {
                      "aws:cdk:cloudformation:type": "AWS::EC2::SecurityGroup",
                      "aws:cdk:cloudformation:props": {
                        "groupDescription": "Automatically created Security Group for ELB JupyterECSJupyterECSServiceALB3B33ADDF",
                        "securityGroupIngress": [
                          {
                            "cidrIp": "0.0.0.0/0",
                            "ipProtocol": "tcp",
                            "fromPort": 443,
                            "toPort": 443,
                            "description": "Allow from anyone on port 443"
                          }
                        ],
                        "vpcId": {
                          "Ref": "JupyterECSVpcB150AB86"
                        }
                      }
                    },
                    "constructInfo": {
                      "fqn": "@aws-cdk/aws-ec2.CfnSecurityGroup",
                      "version": "1.107.0"
                    }
                  },
                  "to JupyterECSJupyterECSServiceSGA468EDA7:8000": {
                    "id": "to JupyterECSJupyterECSServiceSGA468EDA7:8000",
                    "path": "JupyterECS/JupyterECSServiceALB/SecurityGroup/to JupyterECSJupyterECSServiceSGA468EDA7:8000",
                    "attributes": {
                      "aws:cdk:cloudformation:type": "AWS::EC2::SecurityGroupEgress",
                      "aws:cdk:cloudformation:props": {
                        "groupId": {
                          "Fn::GetAtt": [
                            "JupyterECSServiceALBSecurityGroup069902C3",
                            "GroupId"
                          ]
                        },
                        "ipProtocol": "tcp",
                        "description": "Load balancer to target",
                        "destinationSecurityGroupId": {
                          "Fn::GetAtt": [
                            "JupyterECSServiceSG01E1DF0F",
                            "GroupId"
                          ]
                        },
                        "fromPort": 8000,
                        "toPort": 8000
                      }
                    },
                    "constructInfo": {
                      "fqn": "@aws-cdk/aws-ec2.CfnSecurityGroupEgress",
                      "version": "1.107.0"
                    }
                  }
                },
                "constructInfo": {
                  "fqn": "@aws-cdk/aws-ec2.SecurityGroup",
                  "version": "1.107.0"
                }
              },
              "PublicListener": {
                "id": "PublicListener",
                "path": "JupyterECS/JupyterECSServiceALB/PublicListener",
                "children": {
                  "Resource": {
                    "id": "Resource",
                    "path": "JupyterECS/JupyterECSServiceALB/PublicListener/Resource",
                    "attributes": {
                      "aws:cdk:cloudformation:type": "AWS::ElasticLoadBalancingV2::Listener",
                      "aws:cdk:cloudformation:props": {
                        "defaultActions": [
                          {
                            "type": "forward",
                            "targetGroupArn": {
                              "Ref": "JupyterECSServiceALBPublicListenerECSGroupBC1FEB37"
                            }
                          }
                        ],
                        "loadBalancerArn": {
                          "Ref": "JupyterECSServiceALB4B25C15A"
                        },
                        "port": 80,
                        "protocol": "HTTP"
                      }
                    },
                    "constructInfo": {
                      "fqn": "@aws-cdk/aws-elasticloadbalancingv2.CfnListener",
                      "version": "1.107.0"
                    }
                  },
                  "ECSGroup": {
                    "id": "ECSGroup",
                    "path": "JupyterECS/JupyterECSServiceALB/PublicListener/ECSGroup",
                    "children": {
                      "Resource": {
                        "id": "Resource",
                        "path": "JupyterECS/JupyterECSServiceALB/PublicListener/ECSGroup/Resource",
                        "attributes": {
                          "aws:cdk:cloudformation:type": "AWS::ElasticLoadBalancingV2::TargetGroup",
                          "aws:cdk:cloudformation:props": {
                            "healthCheckEnabled": true,
                            "healthCheckPath": "/hub",
                            "matcher": {
                              "httpCode": "200-302"
                            },
                            "port": 80,
                            "protocol": "HTTP",
                            "targetType": "ip",
                            "vpcId": {
                              "Ref": "JupyterECSVpcB150AB86"
                            }
                          }
                        },
                        "constructInfo": {
                          "fqn": "@aws-cdk/aws-elasticloadbalancingv2.CfnTargetGroup",
                          "version": "1.107.0"
                        }
                      }
                    },
                    "constructInfo": {
                      "fqn": "@aws-cdk/aws-elasticloadbalancingv2.ApplicationTargetGroup",
                      "version": "1.107.0"
                    }
                  }
                },
                "constructInfo": {
                  "fqn": "@aws-cdk/aws-elasticloadbalancingv2.ApplicationListener",
                  "version": "1.107.0"
                }
              },
              "JupyterECSServiceALBListener": {
                "id": "JupyterECSServiceALBListener",
                "path": "JupyterECS/JupyterECSServiceALB/JupyterECSServiceALBListener",
                "children": {
                  "Resource": {
                    "id": "Resource",
                    "path": "JupyterECS/JupyterECSServiceALB/JupyterECSServiceALBListener/Resource",
                    "attributes": {
                      "aws:cdk:cloudformation:type": "AWS::ElasticLoadBalancingV2::Listener",
                      "aws:cdk:cloudformation:props": {
                        "defaultActions": [
                          {
                            "type": "forward",
                            "targetGroupArn": {
                              "Ref": "JupyterECSServiceALBPublicListenerECSGroupBC1FEB37"
                            }
                          }
                        ],
                        "loadBalancerArn": {
                          "Ref": "JupyterECSServiceALB4B25C15A"
                        },
                        "certificates": [
                          {
                            "certificateArn": {
                              "Ref": "JupyterECSCertificate64907E11"
                            }
                          }
                        ],
                        "port": 443,
                        "protocol": "HTTPS"
                      }
                    },
                    "constructInfo": {
                      "fqn": "@aws-cdk/aws-elasticloadbalancingv2.CfnListener",
                      "version": "1.107.0"
                    }
                  }
                },
                "constructInfo": {
                  "fqn": "@aws-cdk/aws-elasticloadbalancingv2.ApplicationListener",
                  "version": "1.107.0"
                }
              }
            },
            "constructInfo": {
              "fqn": "@aws-cdk/aws-elasticloadbalancingv2.ApplicationLoadBalancer",
              "version": "1.107.0"
            }
          },
          "JupyterECSImportedLBSG": {
            "id": "JupyterECSImportedLBSG",
            "path": "JupyterECS/JupyterECSImportedLBSG",
            "constructInfo": {
              "fqn": "@aws-cdk/core.Resource",
              "version": "1.107.0"
            }
          },
          "JupyterECSHostedZone": {
            "id": "JupyterECSHostedZone",
            "path": "JupyterECS/JupyterECSHostedZone",
            "constructInfo": {
              "fqn": "@aws-cdk/core.Resource",
              "version": "1.107.0"
            }
          },
          "JupyterECSLBRecord": {
            "id": "JupyterECSLBRecord",
            "path": "JupyterECS/JupyterECSLBRecord",
            "children": {
              "Resource": {
                "id": "Resource",
                "path": "JupyterECS/JupyterECSLBRecord/Resource",
                "attributes": {
                  "aws:cdk:cloudformation:type": "AWS::Route53::RecordSet",
                  "aws:cdk:cloudformation:props": {
                    "name": "jupyter-dev.jupyter-hub-demo.com.",
                    "type": "A",
                    "aliasTarget": {
                      "hostedZoneId": {
                        "Fn::GetAtt": [
                          "JupyterECSServiceALB4B25C15A",
                          "CanonicalHostedZoneID"
                        ]
                      },
                      "dnsName": {
                        "Fn::Join": [
                          "",
                          [
                            "dualstack.",
                            {
                              "Fn::GetAtt": [
                                "JupyterECSServiceALB4B25C15A",
                                "DNSName"
                              ]
                            }
                          ]
                        ]
                      }
                    },
                    "hostedZoneId": "Z086997729C14OVLUN3X9"
                  }
                },
                "constructInfo": {
                  "fqn": "@aws-cdk/aws-route53.CfnRecordSet",
                  "version": "1.107.0"
                }
              }
            },
            "constructInfo": {
              "fqn": "@aws-cdk/aws-route53.ARecord",
              "version": "1.107.0"
            }
          },
          "JupyterECSCertificate": {
            "id": "JupyterECSCertificate",
            "path": "JupyterECS/JupyterECSCertificate",
            "children": {
              "Resource": {
                "id": "Resource",
                "path": "JupyterECS/JupyterECSCertificate/Resource",
                "attributes": {
                  "aws:cdk:cloudformation:type": "AWS::CertificateManager::Certificate",
                  "aws:cdk:cloudformation:props": {
                    "domainName": "*.jupyter-hub-demo.com",
                    "domainValidationOptions": [
                      {
                        "domainName": "*.jupyter-hub-demo.com",
                        "hostedZoneId": "Z086997729C14OVLUN3X9"
                      }
                    ],
                    "validationMethod": "DNS"
                  }
                },
                "constructInfo": {
                  "fqn": "@aws-cdk/aws-certificatemanager.CfnCertificate",
                  "version": "1.107.0"
                }
              }
            },
            "constructInfo": {
              "fqn": "@aws-cdk/aws-certificatemanager.Certificate",
              "version": "1.107.0"
            }
          },
          "JupyterECSUserPool": {
            "id": "JupyterECSUserPool",
            "path": "JupyterECS/JupyterECSUserPool",
            "children": {
              "Resource": {
                "id": "Resource",
                "path": "JupyterECS/JupyterECSUserPool/Resource",
                "attributes": {
                  "aws:cdk:cloudformation:type": "AWS::Cognito::UserPool",
                  "aws:cdk:cloudformation:props": {
                    "accountRecoverySetting": {
                      "recoveryMechanisms": [
                        {
                          "name": "verified_phone_number",
                          "priority": 1
                        },
                        {
                          "name": "verified_email",
                          "priority": 2
                        }
                      ]
                    },
                    "adminCreateUserConfig": {
                      "allowAdminCreateUserOnly": true
                    },
                    "emailVerificationMessage": "The verification code to your new account is {####}",
                    "emailVerificationSubject": "Verify your new account",
                    "smsVerificationMessage": "The verification code to your new account is {####}",
                    "verificationMessageTemplate": {
                      "defaultEmailOption": "CONFIRM_WITH_CODE",
                      "emailMessage": "The verification code to your new account is {####}",
                      "emailSubject": "Verify your new account",
                      "smsMessage": "The verification code to your new account is {####}"
                    }
                  }
                },
                "constructInfo": {
                  "fqn": "@aws-cdk/aws-cognito.CfnUserPool",
                  "version": "1.107.0"
                }
              }
            },
            "constructInfo": {
              "fqn": "@aws-cdk/aws-cognito.UserPool",
              "version": "1.107.0"
            }
          },
          "JupyterECSUserPoolDomain": {
            "id": "JupyterECSUserPoolDomain",
            "path": "JupyterECS/JupyterECSUserPoolDomain",
            "children": {
              "Resource": {
                "id": "Resource",
                "path": "JupyterECS/JupyterECSUserPoolDomain/Resource",
                "attributes": {
                  "aws:cdk:cloudformation:type": "AWS::Cognito::UserPoolDomain",
                  "aws:cdk:cloudformation:props": {
                    "domain": "jupyter-dev-secure",
                    "userPoolId": {
                      "Ref": "JupyterECSUserPool47C58C4E"
                    }
                  }
                },
                "constructInfo": {
                  "fqn": "@aws-cdk/aws-cognito.CfnUserPoolDomain",
                  "version": "1.107.0"
                }
              }
            },
            "constructInfo": {
              "fqn": "@aws-cdk/aws-cognito.UserPoolDomain",
              "version": "1.107.0"
            }
          },
          "JupyterECSUserPoolClient": {
            "id": "JupyterECSUserPoolClient",
            "path": "JupyterECS/JupyterECSUserPoolClient",
            "children": {
              "Resource": {
                "id": "Resource",
                "path": "JupyterECS/JupyterECSUserPoolClient/Resource",
                "attributes": {
                  "aws:cdk:cloudformation:type": "AWS::Cognito::UserPoolClient",
                  "aws:cdk:cloudformation:props": {
                    "userPoolId": {
                      "Ref": "JupyterECSUserPool47C58C4E"
                    },
                    "allowedOAuthFlows": [
                      "implicit",
                      "code"
                    ],
                    "allowedOAuthFlowsUserPoolClient": true,
                    "allowedOAuthScopes": [
                      "profile",
                      "openid"
                    ],
                    "callbackUrLs": [
                      {
                        "Fn::Join": [
                          "",
                          [
                            "https://",
                            {
                              "Ref": "JupyterECSLBRecord9F76C6BB"
                            },
                            "/hub/oauth_callback"
                          ]
                        ]
                      }
                    ],
                    "generateSecret": true,
                    "preventUserExistenceErrors": "ENABLED",
                    "supportedIdentityProviders": [
                      "COGNITO"
                    ]
                  }
                },
                "constructInfo": {
                  "fqn": "@aws-cdk/aws-cognito.CfnUserPoolClient",
                  "version": "1.107.0"
                }
              }
            },
            "constructInfo": {
              "fqn": "@aws-cdk/aws-cognito.UserPoolClient",
              "version": "1.107.0"
            }
          },
          "JupyterECSUserPoolClientIDResource": {
            "id": "JupyterECSUserPoolClientIDResource",
            "path": "JupyterECS/JupyterECSUserPoolClientIDResource",
            "children": {
              "Provider": {
                "id": "Provider",
                "path": "JupyterECS/JupyterECSUserPoolClientIDResource/Provider",
                "constructInfo": {
                  "fqn": "@aws-cdk/aws-lambda.SingletonFunction",
                  "version": "1.107.0"
                }
              },
              "CustomResourcePolicy": {
                "id": "CustomResourcePolicy",
                "path": "JupyterECS/JupyterECSUserPoolClientIDResource/CustomResourcePolicy",
                "children": {
                  "Resource": {
                    "id": "Resource",
                    "path": "JupyterECS/JupyterECSUserPoolClientIDResource/CustomResourcePolicy/Resource",
                    "attributes": {
                      "aws:cdk:cloudformation:type": "AWS::IAM::Policy",
                      "aws:cdk:cloudformation:props": {
                        "policyDocument": {
                          "Statement": [
                            {
                              "Action": "cognito-idp:DescribeUserPoolClient",
                              "Effect": "Allow",
                              "Resource": "*"
                            }
                          ],
                          "Version": "2012-10-17"
                        },
                        "policyName": "JupyterECSUserPoolClientIDResourceCustomResourcePolicy1887D52C",
                        "roles": [
                          {
                            "Ref": "AWS679f53fac002430cb0da5b7982bd2287ServiceRoleC1EA0FF2"
                          }
                        ]
                      }
                    },
                    "constructInfo": {
                      "fqn": "@aws-cdk/aws-iam.CfnPolicy",
                      "version": "1.107.0"
                    }
                  }
                },
                "constructInfo": {
                  "fqn": "@aws-cdk/aws-iam.Policy",
                  "version": "1.107.0"
                }
              },
              "Resource": {
                "id": "Resource",
                "path": "JupyterECS/JupyterECSUserPoolClientIDResource/Resource",
                "children": {
                  "Default": {
                    "id": "Default",
                    "path": "JupyterECS/JupyterECSUserPoolClientIDResource/Resource/Default",
                    "constructInfo": {
                      "fqn": "@aws-cdk/core.CfnResource",
                      "version": "1.107.0"
                    }
                  }
                },
                "constructInfo": {
                  "fqn": "@aws-cdk/core.CustomResource",
                  "version": "1.107.0"
                }
              }
            },
            "constructInfo": {
              "fqn": "@aws-cdk/custom-resources.AwsCustomResource",
              "version": "1.107.0"
            }
          },
          "AWS679f53fac002430cb0da5b7982bd2287": {
            "id": "AWS679f53fac002430cb0da5b7982bd2287",
            "path": "JupyterECS/AWS679f53fac002430cb0da5b7982bd2287",
            "children": {
              "ServiceRole": {
                "id": "ServiceRole",
                "path": "JupyterECS/AWS679f53fac002430cb0da5b7982bd2287/ServiceRole",
                "children": {
                  "Resource": {
                    "id": "Resource",
                    "path": "JupyterECS/AWS679f53fac002430cb0da5b7982bd2287/ServiceRole/Resource",
                    "attributes": {
                      "aws:cdk:cloudformation:type": "AWS::IAM::Role",
                      "aws:cdk:cloudformation:props": {
                        "assumeRolePolicyDocument": {
                          "Statement": [
                            {
                              "Action": "sts:AssumeRole",
                              "Effect": "Allow",
                              "Principal": {
                                "Service": "lambda.amazonaws.com"
                              }
                            }
                          ],
                          "Version": "2012-10-17"
                        },
                        "managedPolicyArns": [
                          {
                            "Fn::Join": [
                              "",
                              [
                                "arn:",
                                {
                                  "Ref": "AWS::Partition"
                                },
                                ":iam::aws:policy/service-role/AWSLambdaBasicExecutionRole"
                              ]
                            ]
                          }
                        ]
                      }
                    },
                    "constructInfo": {
                      "fqn": "@aws-cdk/aws-iam.CfnRole",
                      "version": "1.107.0"
                    }
                  }
                },
                "constructInfo": {
                  "fqn": "@aws-cdk/aws-iam.Role",
                  "version": "1.107.0"
                }
              },
              "Code": {
                "id": "Code",
                "path": "JupyterECS/AWS679f53fac002430cb0da5b7982bd2287/Code",
                "children": {
                  "Stage": {
                    "id": "Stage",
                    "path": "JupyterECS/AWS679f53fac002430cb0da5b7982bd2287/Code/Stage",
                    "constructInfo": {
                      "fqn": "@aws-cdk/core.AssetStaging",
                      "version": "1.107.0"
                    }
                  },
                  "AssetBucket": {
                    "id": "AssetBucket",
                    "path": "JupyterECS/AWS679f53fac002430cb0da5b7982bd2287/Code/AssetBucket",
                    "constructInfo": {
                      "fqn": "@aws-cdk/core.Resource",
                      "version": "1.107.0"
                    }
                  }
                },
                "constructInfo": {
                  "fqn": "@aws-cdk/aws-s3-assets.Asset",
                  "version": "1.107.0"
                }
              },
              "Resource": {
                "id": "Resource",
                "path": "JupyterECS/AWS679f53fac002430cb0da5b7982bd2287/Resource",
                "attributes": {
                  "aws:cdk:cloudformation:type": "AWS::Lambda::Function",
                  "aws:cdk:cloudformation:props": {
                    "code": {
                      "s3Bucket": {
                        "Ref": "AssetParametersf3d3a3cc7f26921b237eff24fc5dd7aef8f0465a1f376b8f7918eb3d4b3e8797S3BucketBEE108A9"
                      },
                      "s3Key": {
                        "Fn::Join": [
                          "",
                          [
                            {
                              "Fn::Select": [
                                0,
                                {
                                  "Fn::Split": [
                                    "||",
                                    {
                                      "Ref": "AssetParametersf3d3a3cc7f26921b237eff24fc5dd7aef8f0465a1f376b8f7918eb3d4b3e8797S3VersionKeyA877E3C9"
                                    }
                                  ]
                                }
                              ]
                            },
                            {
                              "Fn::Select": [
                                1,
                                {
                                  "Fn::Split": [
                                    "||",
                                    {
                                      "Ref": "AssetParametersf3d3a3cc7f26921b237eff24fc5dd7aef8f0465a1f376b8f7918eb3d4b3e8797S3VersionKeyA877E3C9"
                                    }
                                  ]
                                }
                              ]
                            }
                          ]
                        ]
                      }
                    },
                    "role": {
                      "Fn::GetAtt": [
                        "AWS679f53fac002430cb0da5b7982bd2287ServiceRoleC1EA0FF2",
                        "Arn"
                      ]
                    },
                    "handler": "index.handler",
                    "runtime": "nodejs12.x",
                    "timeout": 120
                  }
                },
                "constructInfo": {
                  "fqn": "@aws-cdk/aws-lambda.CfnFunction",
                  "version": "1.107.0"
                }
              }
            },
            "constructInfo": {
              "fqn": "@aws-cdk/aws-lambda.Function",
              "version": "1.107.0"
            }
          },
          "AssetParameters": {
            "id": "AssetParameters",
            "path": "JupyterECS/AssetParameters",
            "children": {
              "f3d3a3cc7f26921b237eff24fc5dd7aef8f0465a1f376b8f7918eb3d4b3e8797": {
                "id": "f3d3a3cc7f26921b237eff24fc5dd7aef8f0465a1f376b8f7918eb3d4b3e8797",
                "path": "JupyterECS/AssetParameters/f3d3a3cc7f26921b237eff24fc5dd7aef8f0465a1f376b8f7918eb3d4b3e8797",
                "children": {
                  "S3Bucket": {
                    "id": "S3Bucket",
                    "path": "JupyterECS/AssetParameters/f3d3a3cc7f26921b237eff24fc5dd7aef8f0465a1f376b8f7918eb3d4b3e8797/S3Bucket",
                    "constructInfo": {
                      "fqn": "@aws-cdk/core.CfnParameter",
                      "version": "1.107.0"
                    }
                  },
                  "S3VersionKey": {
                    "id": "S3VersionKey",
                    "path": "JupyterECS/AssetParameters/f3d3a3cc7f26921b237eff24fc5dd7aef8f0465a1f376b8f7918eb3d4b3e8797/S3VersionKey",
                    "constructInfo": {
                      "fqn": "@aws-cdk/core.CfnParameter",
                      "version": "1.107.0"
                    }
                  },
                  "ArtifactHash": {
                    "id": "ArtifactHash",
                    "path": "JupyterECS/AssetParameters/f3d3a3cc7f26921b237eff24fc5dd7aef8f0465a1f376b8f7918eb3d4b3e8797/ArtifactHash",
                    "constructInfo": {
                      "fqn": "@aws-cdk/core.CfnParameter",
                      "version": "1.107.0"
                    }
                  }
                },
                "constructInfo": {
                  "fqn": "@aws-cdk/core.Construct",
                  "version": "1.107.0"
                }
              }
            },
            "constructInfo": {
              "fqn": "@aws-cdk/core.Construct",
              "version": "1.107.0"
            }
          },
          "JupyterECSTaskDefinition": {
            "id": "JupyterECSTaskDefinition",
            "path": "JupyterECS/JupyterECSTaskDefinition",
            "children": {
              "Resource": {
                "id": "Resource",
                "path": "JupyterECS/JupyterECSTaskDefinition/Resource",
                "attributes": {
                  "aws:cdk:cloudformation:type": "AWS::ECS::TaskDefinition",
                  "aws:cdk:cloudformation:props": {
                    "containerDefinitions": [
                      {
                        "essential": true,
                        "image": "877969058937.dkr.ecr.us-east-1.amazonaws.com/jupyter-hub-demo-repo",
                        "mountPoints": [
                          {
                            "containerPath": "/home",
                            "readOnly": false,
                            "sourceVolume": "efs-volume"
                          }
                        ],
                        "name": "JupyterECSContainer",
                        "portMappings": [
                          {
                            "containerPort": 8000,
                            "hostPort": 8000,
                            "protocol": "tcp"
                          }
                        ],
                        "privileged": false,
                        "logConfiguration": {
                          "logDriver": "awslogs",
                          "options": {
                            "awslogs-group": {
                              "Ref": "JupyterECSTaskDefinitionJupyterECSContainerLogGroup22FF17CD"
                            },
                            "awslogs-stream-prefix": "JupyterECSContainerLogs-",
                            "awslogs-region": {
                              "Ref": "AWS::Region"
                            }
                          }
                        },
                        "environment": [
                          {
                            "name": "OAUTH_CALLBACK_URL",
                            "value": {
                              "Fn::Join": [
                                "",
                                [
                                  "https://",
                                  {
                                    "Ref": "JupyterECSLBRecord9F76C6BB"
                                  },
                                  "/hub/oauth_callback"
                                ]
                              ]
                            }
                          },
                          {
                            "name": "OAUTH_CLIENT_ID",
                            "value": {
                              "Ref": "JupyterECSUserPoolClientE390D092"
                            }
                          },
                          {
                            "name": "OAUTH_CLIENT_SECRET",
                            "value": {
                              "Fn::GetAtt": [
                                "JupyterECSUserPoolClientIDResource9AA58E8B",
                                "UserPoolClient.ClientSecret"
                              ]
                            }
                          },
                          {
                            "name": "OAUTH_LOGIN_SERVICE_NAME",
                            "value": "AWS Cognito"
                          },
                          {
                            "name": "OAUTH_LOGIN_USERNAME_KEY",
                            "value": "username"
                          },
                          {
                            "name": "OAUTH_AUTHORIZE_URL",
                            "value": {
                              "Fn::Join": [
                                "",
                                [
                                  "https://",
                                  {
                                    "Ref": "JupyterECSUserPoolDomain6DFF1B24"
                                  },
                                  ".auth.",
                                  {
                                    "Ref": "AWS::Region"
                                  },
                                  ".amazoncognito.com/oauth2/authorize"
                                ]
                              ]
                            }
                          },
                          {
                            "name": "OAUTH_TOKEN_URL",
                            "value": {
                              "Fn::Join": [
                                "",
                                [
                                  "https://",
                                  {
                                    "Ref": "JupyterECSUserPoolDomain6DFF1B24"
                                  },
                                  ".auth.",
                                  {
                                    "Ref": "AWS::Region"
                                  },
                                  ".amazoncognito.com/oauth2/token"
                                ]
                              ]
                            }
                          },
                          {
                            "name": "OAUTH_USERDATA_URL",
                            "value": {
                              "Fn::Join": [
                                "",
                                [
                                  "https://",
                                  {
                                    "Ref": "JupyterECSUserPoolDomain6DFF1B24"
                                  },
                                  ".auth.",
                                  {
                                    "Ref": "AWS::Region"
                                  },
                                  ".amazoncognito.com/oauth2/userInfo"
                                ]
                              ]
                            }
                          },
                          {
                            "name": "OAUTH_SCOPE",
                            "value": "openid,profile"
                          }
                        ]
                      }
                    ],
                    "cpu": "512",
                    "executionRoleArn": {
                      "Fn::GetAtt": [
                        "JupyterECSTaskExecutionRole57A54572",
                        "Arn"
                      ]
                    },
                    "family": "JupyterECSJupyterECSTaskDefinition9B7B4FAA",
                    "memory": "2048",
                    "networkMode": "awsvpc",
                    "requiresCompatibilities": [
                      "FARGATE"
                    ],
                    "taskRoleArn": {
                      "Fn::GetAtt": [
                        "JupyterECSTaskRole86572C37",
                        "Arn"
                      ]
                    },
                    "volumes": [
                      {
                        "name": "efs-volume",
                        "efsVolumeConfiguration": {
                          "fileSystemId": {
                            "Ref": "JupyterECSEFSB80C1E99"
                          }
                        }
                      }
                    ]
                  }
                },
                "constructInfo": {
                  "fqn": "@aws-cdk/aws-ecs.CfnTaskDefinition",
                  "version": "1.107.0"
                }
              },
              "JupyterECSContainer": {
                "id": "JupyterECSContainer",
                "path": "JupyterECS/JupyterECSTaskDefinition/JupyterECSContainer",
                "children": {
                  "LogGroup": {
                    "id": "LogGroup",
                    "path": "JupyterECS/JupyterECSTaskDefinition/JupyterECSContainer/LogGroup",
                    "children": {
                      "Resource": {
                        "id": "Resource",
                        "path": "JupyterECS/JupyterECSTaskDefinition/JupyterECSContainer/LogGroup/Resource",
                        "attributes": {
                          "aws:cdk:cloudformation:type": "AWS::Logs::LogGroup",
                          "aws:cdk:cloudformation:props": {
                            "retentionInDays": 7
                          }
                        },
                        "constructInfo": {
                          "fqn": "@aws-cdk/aws-logs.CfnLogGroup",
                          "version": "1.107.0"
                        }
                      }
                    },
                    "constructInfo": {
                      "fqn": "@aws-cdk/aws-logs.LogGroup",
                      "version": "1.107.0"
                    }
                  }
                },
                "constructInfo": {
                  "fqn": "@aws-cdk/aws-ecs.ContainerDefinition",
                  "version": "1.107.0"
                }
              }
            },
            "constructInfo": {
              "fqn": "@aws-cdk/aws-ecs.FargateTaskDefinition",
              "version": "1.107.0"
            }
          },
          "JupyterECSService": {
            "id": "JupyterECSService",
            "path": "JupyterECS/JupyterECSService",
            "children": {
              "LoadBalancerDNS": {
                "id": "LoadBalancerDNS",
                "path": "JupyterECS/JupyterECSService/LoadBalancerDNS",
                "constructInfo": {
                  "fqn": "@aws-cdk/core.CfnOutput",
                  "version": "1.107.0"
                }
              },
              "ServiceURL": {
                "id": "ServiceURL",
                "path": "JupyterECS/JupyterECSService/ServiceURL",
                "constructInfo": {
                  "fqn": "@aws-cdk/core.CfnOutput",
                  "version": "1.107.0"
                }
              },
              "Service": {
                "id": "Service",
                "path": "JupyterECS/JupyterECSService/Service",
                "children": {
                  "Service": {
                    "id": "Service",
                    "path": "JupyterECS/JupyterECSService/Service/Service",
                    "attributes": {
                      "aws:cdk:cloudformation:type": "AWS::ECS::Service",
                      "aws:cdk:cloudformation:props": {
                        "cluster": {
                          "Ref": "JupyterECSCluster83CF7835"
                        },
                        "deploymentConfiguration": {
                          "maximumPercent": 200,
                          "minimumHealthyPercent": 50
                        },
                        "desiredCount": 10,
                        "enableEcsManagedTags": false,
                        "healthCheckGracePeriodSeconds": 60,
                        "launchType": "FARGATE",
                        "loadBalancers": [
                          {
                            "targetGroupArn": {
                              "Ref": "JupyterECSServiceALBPublicListenerECSGroupBC1FEB37"
                            },
                            "containerName": "JupyterECSContainer",
                            "containerPort": 8000
                          }
                        ],
                        "networkConfiguration": {
                          "awsvpcConfiguration": {
                            "assignPublicIp": "DISABLED",
                            "subnets": [
                              {
                                "Ref": "JupyterECSVpcPrivateSubnet1SubnetC57688CE"
                              },
                              {
                                "Ref": "JupyterECSVpcPrivateSubnet2Subnet87900611"
                              }
                            ],
                            "securityGroups": [
                              {
                                "Fn::GetAtt": [
                                  "JupyterECSServiceSG01E1DF0F",
                                  "GroupId"
                                ]
                              }
                            ]
                          }
                        },
                        "taskDefinition": {
                          "Ref": "JupyterECSTaskDefinitionA59765E7"
                        }
                      }
                    },
                    "constructInfo": {
                      "fqn": "@aws-cdk/aws-ecs.CfnService",
                      "version": "1.107.0"
                    }
                  }
                },
                "constructInfo": {
                  "fqn": "@aws-cdk/aws-ecs.FargateService",
                  "version": "1.107.0"
                }
              }
            },
            "constructInfo": {
              "fqn": "@aws-cdk/aws-ecs-patterns.ApplicationLoadBalancedFargateService",
              "version": "1.107.0"
            }
          },
          "JupyterECSUserPoolAdminUserResource": {
            "id": "JupyterECSUserPoolAdminUserResource",
            "path": "JupyterECS/JupyterECSUserPoolAdminUserResource",
            "children": {
              "Provider": {
                "id": "Provider",
                "path": "JupyterECS/JupyterECSUserPoolAdminUserResource/Provider",
                "constructInfo": {
                  "fqn": "@aws-cdk/aws-lambda.SingletonFunction",
                  "version": "1.107.0"
                }
              },
              "CustomResourcePolicy": {
                "id": "CustomResourcePolicy",
                "path": "JupyterECS/JupyterECSUserPoolAdminUserResource/CustomResourcePolicy",
                "children": {
                  "Resource": {
                    "id": "Resource",
                    "path": "JupyterECS/JupyterECSUserPoolAdminUserResource/CustomResourcePolicy/Resource",
                    "attributes": {
                      "aws:cdk:cloudformation:type": "AWS::IAM::Policy",
                      "aws:cdk:cloudformation:props": {
                        "policyDocument": {
                          "Statement": [
                            {
                              "Action": "cognito-idp:AdminCreateUser",
                              "Effect": "Allow",
                              "Resource": "*"
                            }
                          ],
                          "Version": "2012-10-17"
                        },
                        "policyName": "JupyterECSUserPoolAdminUserResourceCustomResourcePolicy08B33304",
                        "roles": [
                          {
                            "Ref": "AWS679f53fac002430cb0da5b7982bd2287ServiceRoleC1EA0FF2"
                          }
                        ]
                      }
                    },
                    "constructInfo": {
                      "fqn": "@aws-cdk/aws-iam.CfnPolicy",
                      "version": "1.107.0"
                    }
                  }
                },
                "constructInfo": {
                  "fqn": "@aws-cdk/aws-iam.Policy",
                  "version": "1.107.0"
                }
              },
              "Resource": {
                "id": "Resource",
                "path": "JupyterECS/JupyterECSUserPoolAdminUserResource/Resource",
                "children": {
                  "Default": {
                    "id": "Default",
                    "path": "JupyterECS/JupyterECSUserPoolAdminUserResource/Resource/Default",
                    "constructInfo": {
                      "fqn": "@aws-cdk/core.CfnResource",
                      "version": "1.107.0"
                    }
                  }
                },
                "constructInfo": {
                  "fqn": "@aws-cdk/core.CustomResource",
                  "version": "1.107.0"
                }
              }
            },
            "constructInfo": {
              "fqn": "@aws-cdk/custom-resources.AwsCustomResource",
              "version": "1.107.0"
            }
          },
          "JupyterECSJupyterHubURL": {
            "id": "JupyterECSJupyterHubURL",
            "path": "JupyterECS/JupyterECSJupyterHubURL",
            "constructInfo": {
              "fqn": "@aws-cdk/core.CfnOutput",
              "version": "1.107.0"
            }
          },
          "CDKMetadata": {
            "id": "CDKMetadata",
            "path": "JupyterECS/CDKMetadata",
            "children": {
              "Default": {
                "id": "Default",
                "path": "JupyterECS/CDKMetadata/Default",
                "constructInfo": {
                  "fqn": "@aws-cdk/core.CfnResource",
                  "version": "1.107.0"
                }
              },
              "Condition": {
                "id": "Condition",
                "path": "JupyterECS/CDKMetadata/Condition",
                "constructInfo": {
                  "fqn": "@aws-cdk/core.CfnCondition",
                  "version": "1.107.0"
                }
              }
            },
            "constructInfo": {
              "fqn": "@aws-cdk/core.Construct",
              "version": "1.107.0"
            }
          }
        },
        "constructInfo": {
          "fqn": "@aws-cdk/core.Stack",
          "version": "1.107.0"
        }
      }
    },
    "constructInfo": {
      "fqn": "@aws-cdk/core.App",
      "version": "1.107.0"
    }
  }
}